{
  "success_responses": {
    "get_user": {
      "success": true,
      "message": "사용자 정보 조회 성공",
      "data": {
        "id": 1,
        "name": "김철수",
        "email": "kim@example.com",
        "avatar": "https://via.placeholder.com/150",
        "phone": "010-1234-5678",
        "address": "서울시 강남구",
        "createdAt": "2024-01-15T10:30:00Z"
      }
    },
    "get_users": {
      "success": true,
      "message": "사용자 목록 조회 성공",
      "data": {
        "users": [
          {
            "id": 1,
            "name": "김철수",
            "email": "kim@example.com",
            "avatar": "https://via.placeholder.com/150"
          },
          {
            "id": 2,
            "name": "이영희",
            "email": "lee@example.com",
            "avatar": "https://via.placeholder.com/150"
          }
        ],
        "pagination": {
          "currentPage": 1,
          "totalPages": 5,
          "totalItems": 50,
          "itemsPerPage": 10
        }
      }
    },
    "login": {
      "success": true,
      "message": "로그인 성공",
      "data": {
        "accessToken": "mock_access_token_12345",
        "refreshToken": "mock_refresh_token_67890",
        "user": {
          "id": 1,
          "name": "김철수",
          "email": "kim@example.com",
          "role": "user"
        }
      }
    }
  },
  "error_responses": {
    "unauthorized": {
      "success": false,
      "error": {
        "code": "UNAUTHORIZED",
        "message": "인증이 필요합니다"
      }
    },
    "not_found": {
      "success": false,
      "error": {
        "code": "NOT_FOUND", 
        "message": "요청한 리소스를 찾을 수 없습니다"
      }
    },
    "validation_error": {
      "success": false,
      "error": {
        "code": "VALIDATION_ERROR",
        "message": "입력값이 올바르지 않습니다",
        "details": [
          {
            "field": "email",
            "message": "올바른 이메일 형식이 아닙니다"
          },
          {
            "field": "password",
            "message": "비밀번호는 8자 이상이어야 합니다"
          }
        ]
      }
    }
  }
}
